single_cycle/single_cycle/dump.vcd
$date
	Tue Jun  7 21:16:39 2022
$end
$version
	Icarus Verilog
$end
$timescale
	100ps
$end
$scope module test_single_cycle $end
$var reg 1 ! clk $end
$var reg 1 " reset $end
$scope module processor0 $end
$var wire 1 ! clk $end
$var wire 1 " reset $end
$var wire 1 # rx $end
$var wire 32 $ single_reg [31:0] $end
$var wire 1 % tx $end
$var wire 32 & ram_write_data [31:0] $end
$var wire 1 ' ram_we $end
$var wire 32 ( ram_read_data [31:0] $end
$var wire 32 ) pc [31:0] $end
$var wire 2 * mem_ctrl [1:0] $end
$var wire 8 + led_out [7:0] $end
$var wire 32 , instr [31:0] $end
$var wire 32 - alu_res [31:0] $end
$scope module core0 $end
$var wire 1 ! clk $end
$var wire 1 " reset $end
$var wire 1 . zero $end
$var wire 3 / res_src [2:0] $end
$var wire 1 0 reg_file_we $end
$var wire 32 1 ram_write_data [31:0] $end
$var wire 1 ' ram_we $end
$var wire 32 2 ram_read_data [31:0] $end
$var wire 2 3 pc_src [1:0] $end
$var wire 32 4 pc [31:0] $end
$var wire 3 5 mem_ctrl_from_decoder [2:0] $end
$var wire 2 6 mem_ctrl [1:0] $end
$var wire 7 7 instr_op [6:0] $end
$var wire 25 8 instr_imm [31:7] $end
$var wire 1 9 instr_func7 $end
$var wire 3 : instr_func3 [14:12] $end
$var wire 5 ; instr_A3 [11:7] $end
$var wire 5 < instr_A2 [24:20] $end
$var wire 5 = instr_A1 [19:15] $end
$var wire 32 > instr [31:0] $end
$var wire 3 ? imm_src [2:0] $end
$var wire 1 @ alu_src $end
$var wire 32 A alu_res [31:0] $end
$var wire 4 B alu_ctrl [3:0] $end
$scope module datapath0 $end
$var wire 32 C alu_res [31:0] $end
$var wire 1 ! clk $end
$var wire 5 D instr_A1 [19:15] $end
$var wire 5 E instr_A2 [24:20] $end
$var wire 5 F instr_A3 [11:7] $end
$var wire 25 G instr_imm [31:7] $end
$var wire 32 H pc_out [31:0] $end
$var wire 1 " reset $end
$var wire 32 I write_data [31:0] $end
$var wire 1 . zero $end
$var wire 32 J rs2 [31:0] $end
$var wire 3 K res_src [2:0] $end
$var wire 32 L res_res [31:0] $end
$var wire 1 0 reg_file_we3 $end
$var wire 32 M rd2 [31:0] $end
$var wire 32 N rd1 [31:0] $end
$var wire 32 O ram_read_data [31:0] $end
$var wire 32 P pc_target [31:0] $end
$var wire 2 Q pc_src [1:0] $end
$var wire 32 R pc_plus4 [31:0] $end
$var wire 32 S pc_next [31:0] $end
$var wire 32 T pc [31:0] $end
$var wire 3 U mem_ctrl [2:0] $end
$var wire 2 V low_ram_address [1:0] $end
$var wire 32 W load_module_out [31:0] $end
$var wire 3 X imm_src [2:0] $end
$var wire 32 Y imm_ext [31:0] $end
$var wire 1 @ alu_src $end
$var wire 32 Z alu_res_internal [31:0] $end
$var wire 4 [ alu_ctrl [3:0] $end
$scope module alu_src_mux0 $end
$var wire 32 \ rd2 [31:0] $end
$var wire 32 ] imm_ext [31:0] $end
$var wire 1 @ alu_src $end
$var wire 32 ^ alu_rs2 [31:0] $end
$upscope $end
$scope module imm_sign_ext0 $end
$var wire 25 _ instr [31:7] $end
$var wire 3 ` imm_src [2:0] $end
$var reg 32 a imm_out [31:0] $end
$upscope $end
$scope module load_module0 $end
$var wire 2 b low_address [1:0] $end
$var wire 3 c load_enable [2:0] $end
$var wire 32 d in [31:0] $end
$var reg 32 e out [31:0] $end
$upscope $end
$scope module pc_mux0 $end
$var wire 32 f pc_target [31:0] $end
$var wire 2 g pc_src [1:0] $end
$var wire 32 h pc_prev [31:0] $end
$var wire 32 i pc_plus4 [31:0] $end
$var wire 32 j pc_alu [31:0] $end
$var reg 32 k pc_next [31:0] $end
$upscope $end
$scope module pc_plus4_adder0 $end
$var wire 32 l pc_prev [31:0] $end
$var wire 32 m pc_next [31:0] $end
$upscope $end
$scope module pc_reg0 $end
$var wire 1 ! clk $end
$var wire 32 n pc_prev [31:0] $end
$var wire 1 " reset $end
$var reg 32 o pc_next [31:0] $end
$upscope $end
$scope module pc_target_adder0 $end
$var wire 32 p imm_ext [31:0] $end
$var wire 32 q pc_next [31:0] $end
$var wire 32 r pc_target [31:0] $end
$upscope $end
$scope module regfile0 $end
$var wire 5 s a1 [4:0] $end
$var wire 5 t a2 [4:0] $end
$var wire 5 u a3 [4:0] $end
$var wire 1 ! clk $end
$var wire 1 0 we3 $end
$var wire 32 v wd3 [31:0] $end
$var reg 32 w rd1 [31:0] $end
$var reg 32 x rd2 [31:0] $end
$var integer 32 y i [31:0] $end
$upscope $end
$scope module result_mux0 $end
$var wire 32 z alu_res [31:0] $end
$var wire 32 { imm_auipc [31:0] $end
$var wire 32 | imm_lui [31:0] $end
$var wire 32 } mem [31:0] $end
$var wire 32 ~ pc_plus4 [31:0] $end
$var wire 3 !" res_src [2:0] $end
$var reg 32 "" res [31:0] $end
$upscope $end
$scope module rv_alu0 $end
$var wire 32 #" rs1 [31:0] $end
$var wire 32 $" rs2 [31:0] $end
$var wire 32 %" sub_res [31:0] $end
$var wire 32 &" rd [31:0] $end
$var wire 4 '" op_in [3:0] $end
$var reg 32 (" result_r [31:0] $end
$var reg 1 . zero $end
$upscope $end
$upscope $end
$scope module decoder0 $end
$var wire 3 )" funct3 [14:12] $end
$var wire 1 9 funct7 $end
$var wire 7 *" op [6:0] $end
$var wire 1 . zero $end
$var reg 4 +" alu_ctrl [3:0] $end
$var reg 1 @ alu_src $end
$var reg 3 ," imm_src [2:0] $end
$var reg 3 -" mem_ctrl [2:0] $end
$var reg 1 ' mem_we $end
$var reg 2 ." pc_src [1:0] $end
$var reg 1 0 reg_file_we $end
$var reg 3 /" res_src [2:0] $end
$upscope $end
$upscope $end
$scope module io_ram_datapath0 $end
$var wire 32 0" address [31:0] $end
$var wire 1 ! clk $end
$var wire 2 1" mem_ctrl [1:0] $end
$var wire 1 # rx $end
$var wire 32 2" wd [31:0] $end
$var wire 1 ' we $end
$var wire 1 3" we_uart $end
$var wire 1 4" we_ram $end
$var wire 1 5" we_led $end
$var wire 3 6" uart_reg_mux_out [2:0] $end
$var wire 1 % tx $end
$var wire 32 7" rd_uart [31:0] $end
$var wire 32 8" rd_ram [31:0] $end
$var wire 32 9" rd [31:0] $end
$var wire 1 :" load_mux $end
$var wire 8 ;" led_out [7:0] $end
$var wire 32 <" address_to_ram [31:0] $end
$scope module io_ram_decoder0 $end
$var wire 32 =" address [31:0] $end
$var wire 1 ' we $end
$var wire 1 >" isRam $end
$var wire 1 ?" isIO $end
$var reg 32 @" address_to_ram [31:0] $end
$var reg 1 :" load_mux $end
$var reg 3 A" uart_reg_mux_out [2:0] $end
$var reg 1 5" we_led $end
$var reg 1 4" we_ram $end
$var reg 1 3" we_uart $end
$upscope $end
$scope module led0 $end
$var wire 8 B" led_in [7:0] $end
$var wire 1 5" we $end
$var reg 8 C" led_out [7:0] $end
$upscope $end
$scope module load_mux0 $end
$var wire 1 :" in $end
$var wire 32 D" loaded_data [31:0] $end
$var wire 32 E" data_uart [31:0] $end
$var wire 32 F" data_ram [31:0] $end
$upscope $end
$scope module ram0 $end
$var wire 32 G" address [31:0] $end
$var wire 1 ! clk $end
$var wire 32 H" data_in [31:0] $end
$var wire 2 I" mem_ctrl [1:0] $end
$var wire 1 4" we $end
$var wire 30 J" word_addr [29:0] $end
$var reg 32 K" data_out [31:0] $end
$var integer 32 L" i [31:0] $end
$upscope $end
$scope module uart0 $end
$var wire 32 M" baud [31:0] $end
$var wire 1 ! clk $end
$var wire 3 N" reg_num [2:0] $end
$var wire 1 # rx $end
$var wire 1 % tx $end
$var wire 32 O" wd [31:0] $end
$var wire 1 3" we $end
$var wire 1 P" rx_not_empty $end
$var wire 8 Q" rx_data [7:0] $end
$var reg 1 R" Tx $end
$var reg 32 S" baud_counter_clk [31:0] $end
$var reg 32 T" baud_counter_tx [31:0] $end
$var reg 1 U" brr_clk $end
$var reg 1 V" current_bit $end
$var reg 1 W" is_need_start_tx $end
$var reg 1 X" is_rx_started $end
$var reg 1 Y" is_tx_started $end
$var reg 32 Z" rd [31:0] $end
$var reg 4 [" rx_counter [3:0] $end
$var reg 8 \" shift_transmit [7:0] $end
$var reg 4 ]" tx_counter [3:0] $end
$var integer 32 ^" i [31:0] $end
$scope module shift_reg_rx $end
$var wire 1 U" clk $end
$var wire 1 _" load $end
$var wire 8 `" par_in [7:0] $end
$var wire 1 # ser_in $end
$var wire 1 a" ser_out $end
$var reg 8 b" par_out [7:0] $end
$upscope $end
$upscope $end
$upscope $end
$scope module rom0 $end
$var wire 32 c" address [31:0] $end
$var wire 32 d" instruction [31:0] $end
$upscope $end
$upscope $end
$upscope $end
$enddefinitions $end
#0
$dumpvars
b1000100110111 d"
b0 c"
bzxxxxxxx b"
xa"
bz `"
z_"
b101 ^"
b0 ]"
b0 \"
b0 ["
bx Z"
0Y"
0X"
0W"
xV"
1U"
b0 T"
b0 S"
1R"
bzxxxxxxx Q"
0P"
b0 O"
bx N"
b0 M"
b10000 L"
bx K"
b0 J"
b0 I"
b0 H"
b0 G"
bx F"
bx E"
bx D"
bx C"
b0 B"
bx A"
b0 @"
0?"
1>"
b0 ="
b0 <"
bx ;"
0:"
bx 9"
bx 8"
bx 7"
bx 6"
05"
04"
03"
b0 2"
b0 1"
b0 0"
b11 /"
b0 ."
b0 -"
b11 ,"
b0 +"
b110111 *"
b1 )"
b0 ("
b0 '"
b0 &"
b0 %"
b0 $"
b0 #"
b1000000000000 ""
b11 !"
b100 ~
bx }
b1000000000000 |
b1000000000000 {
b0 z
b100000 y
b0 x
b0 w
b1000000000000 v
b10 u
b0 t
b0 s
b1000000000000 r
b0 q
b1000000000000 p
b0 o
b100 n
b0 m
b100 l
b100 k
b0 j
b100 i
b0 h
b0 g
b1000000000000 f
bx e
bx d
b0 c
b0 b
b1000000000000 a
b11 `
b100010 _
b0 ^
b1000000000000 ]
b0 \
b0 [
b0 Z
b1000000000000 Y
b11 X
bx W
b0 V
b0 U
b0 T
b100 S
b100 R
b0 Q
b1000000000000 P
bx O
b0 N
b0 M
b1000000000000 L
b11 K
b0 J
b0 I
b0 H
b100010 G
b10 F
b0 E
b0 D
b0 C
b0 B
b0 A
0@
b11 ?
b1000100110111 >
b0 =
b0 <
b10 ;
b1 :
09
b100010 8
b110111 7
b0 6
b0 5
b0 4
b0 3
bx 2
b0 1
10
b11 /
0.
b0 -
b1000100110111 ,
bx +
b0 *
b0 )
bx (
0'
b0 &
1%
bz $
z#
1"
0!
$end
#10
b10000000000000000000000 L
b10000000000000000000000 v
b10000000000000000000000 ""
b10000000000000000000000 Y
b10000000000000000000000 ]
b10000000000000000000000 a
b10000000000000000000000 p
b10000000000000000000000 |
b11 ?
b11 X
b11 `
b11 ,"
10
b11 /
b11 K
b11 !"
b11 /"
b1000000000001000 8
b1000000000001000 G
b1000000000001000 _
b1000 ;
b1000 F
b1000 u
b100 <
b100 E
b100 t
b0 :
b0 )"
b0 W
b0 e
b0 }
b10000000000010000110111 ,
b10000000000010000110111 >
b10000000000010000110111 d"
b1000 S
b1000 k
b1000 n
b0 (
b0 2
b0 O
b0 d
b0 9"
b0 D"
b10000000000000000000100 P
b10000000000000000000100 f
b10000000000000000000100 r
b10000000000000000000100 {
b1000 R
b1000 i
b1000 l
b1000 ~
b100 )
b100 4
b100 H
b100 c"
b100 T
b100 h
b100 m
b100 o
b100 q
b0 8"
b0 F"
b0 K"
1!
#20
0U"
0!
#30
bzxxxxxx Q"
bzxxxxxx b"
bx W
bx e
bx }
bx (
bx 2
bx O
bx d
bx 9"
bx D"
1:"
b100000000000001000010 J"
0>"
1?"
b10000000000000100001000 <"
b10000000000000100001000 @"
b10000000000000100001000 G"
b10000000000000100001000 -
b10000000000000100001000 A
b10000000000000100001000 C
b10000000000000100001000 z
b10000000000000100001000 0"
b10000000000000100001000 ="
b10000000000000100001000 Z
b10000000000000100001000 j
b10000000000000100001000 &"
b10000000000000100001000 ("
b100001000 J
b100001000 ^
b100001000 $"
b10000000000000100001000 L
b10000000000000100001000 v
b10000000000000100001000 ""
b100001000 Y
b100001000 ]
b100001000 a
b100001000 p
b100001000 |
b10000000000000000000000 &
b10000000000000000000000 1
b10000000000000000000000 I
b10000000000000000000000 2"
b10000000000000000000000 H"
b10000000000000000000000 O"
b10000000000000000000000 M
b10000000000000000000000 \
b10000000000000000000000 x
b1111111111111011111000 %"
b10000000000000000000000 N
b10000000000000000000000 w
b10000000000000000000000 #"
1@
b0 ?
b0 X
b0 `
b0 ,"
10
b0 /
b0 K
b0 !"
b0 /"
b1000010000100000001000 8
b1000010000100000001000 G
b1000010000100000001000 _
b1000 <
b1000 E
b1000 t
b1000 =
b1000 D
b1000 s
b10011 7
b10011 *"
b10000100001000000010000010011 ,
b10000100001000000010000010011 >
b10000100001000000010000010011 d"
b1100 S
b1100 k
b1100 n
1U"
b100010000 P
b100010000 f
b100010000 r
b100010000 {
b1100 R
b1100 i
b1100 l
b1100 ~
b1000 )
b1000 4
b1000 H
b1000 c"
b1000 T
b1000 h
b1000 m
b1000 o
b1000 q
1!
#40
0U"
0!
#50
bzxxxxx Q"
bzxxxxx b"
0:"
1>"
0?"
b0 J
b0 ^
b0 $"
b0 J"
b0 Y
b0 ]
b0 a
b0 p
b0 |
b0 L
b0 v
b0 ""
b0 <"
b0 @"
b0 G"
b1001 8
b1001 G
b1001 _
b1001 ;
b1001 F
b1001 u
b0 <
b0 E
b0 t
b0 =
b0 D
b0 s
b0 B"
b0 -
b0 A
b0 C
b0 z
b0 0"
b0 ="
b0 Z
b0 j
b0 &"
b0 ("
b10010010011 ,
b10010010011 >
b10010010011 d"
b10000 S
b10000 k
b10000 n
b0 &
b0 1
b0 I
b0 2"
b0 H"
b0 O"
b0 M
b0 \
b0 x
b0 %"
b0 N
b0 w
b0 #"
b1100 P
b1100 f
b1100 r
b1100 {
b10000 R
b10000 i
b10000 l
b10000 ~
b1100 )
b1100 4
b1100 H
b1100 c"
b1100 T
b1100 h
b1100 m
b1100 o
b1100 q
1U"
bx 8"
bx F"
bx K"
1!
#60
0U"
0!
#70
bzxxxx Q"
bzxxxx b"
b100000000000001000010 J"
b10000000000000100001000 L
b10000000000000100001000 v
b10000000000000100001000 ""
b10 6"
b10 A"
b10 N"
13"
b10000000000000100001000 <"
b10000000000000100001000 @"
b10000000000000100001000 G"
0>"
1?"
b10000000000000100001000 -
b10000000000000100001000 A
b10000000000000100001000 C
b10000000000000100001000 z
b10000000000000100001000 0"
b10000000000000100001000 ="
b10000000000000100001000 Z
b10000000000000100001000 j
b10000000000000100001000 &"
b10000000000000100001000 ("
b10 *
b10 6
b10 1"
b10 I"
04"
b10000000000000100001000 %"
b10000000000000100001000 N
b10000000000000100001000 w
b10000000000000100001000 #"
b10 5
b10 U
b10 c
b10 -"
b1 ?
b1 X
b1 `
b1 ,"
1'
1@
00
b0 W
b0 e
b0 }
b10010100001000000 8
b10010100001000000 G
b10010100001000000 _
b0 ;
b0 F
b0 u
b1001 <
b1001 E
b1001 t
b1000 =
b1000 D
b1000 s
b10 :
b10 )"
b100011 7
b100011 *"
b0 (
b0 2
b0 O
b0 d
b0 9"
b0 D"
b100101000010000000100011 ,
b100101000010000000100011 >
b100101000010000000100011 d"
b10100 S
b10100 k
b10100 n
b0 8"
b0 F"
b0 K"
1U"
b10000 P
b10000 f
b10000 r
b10000 {
b10100 R
b10100 i
b10100 l
b10100 ~
b10000 )
b10000 4
b10000 H
b10000 c"
b10000 T
b10000 h
b10000 m
b10000 o
b10000 q
1!
#80
0U"
0!
#90
bzxxx Q"
bzxxx b"
b0 J"
b0 <"
b0 @"
b0 G"
1>"
0?"
b0 -
b0 A
b0 C
b0 z
b0 0"
b0 ="
b0 Z
b0 j
b0 &"
b0 ("
b10000000000000000000000 L
b10000000000000000000000 v
b10000000000000000000000 ""
b0 *
b0 6
b0 1"
b0 I"
0:"
03"
b10000000000000000000000 Y
b10000000000000000000000 ]
b10000000000000000000000 a
b10000000000000000000000 p
b10000000000000000000000 |
b0 %"
b0 N
b0 w
b0 #"
b11 /
b11 K
b11 !"
b11 /"
10
b0 5
b0 U
b0 c
b0 -"
b11 ?
b11 X
b11 `
b11 ,"
0@
0'
b1000000000001000 8
b1000000000001000 G
b1000000000001000 _
b1000 ;
b1000 F
b1000 u
b100 <
b100 E
b100 t
b0 =
b0 D
b0 s
b0 :
b0 )"
b110111 7
b110111 *"
bx W
bx e
bx }
b10000000000010000110111 ,
b10000000000010000110111 >
b10000000000010000110111 d"
b11000 S
b11000 k
b11000 n
bx (
bx 2
bx O
bx d
bx 9"
bx D"
b10000000000000000010100 P
b10000000000000000010100 f
b10000000000000000010100 r
b10000000000000000010100 {
b11000 R
b11000 i
b11000 l
b11000 ~
b10100 )
b10100 4
b10100 H
b10100 c"
b10100 T
b10100 h
b10100 m
b10100 o
b10100 q
1U"
bx 8"
bx F"
bx K"
1!
#100
0U"
0!
#110
bzxx Q"
bzxx b"
1:"
b100000000000001000011 J"
0>"
1?"
b10000000000000100001100 <"
b10000000000000100001100 @"
b10000000000000100001100 G"
b10000000000000100001100 -
b10000000000000100001100 A
b10000000000000100001100 C
b10000000000000100001100 z
b10000000000000100001100 0"
b10000000000000100001100 ="
b10000000000000100001100 Z
b10000000000000100001100 j
b10000000000000100001100 &"
b10000000000000100001100 ("
b100001100 J
b100001100 ^
b100001100 $"
b10000000000000100001100 L
b10000000000000100001100 v
b10000000000000100001100 ""
b100001100 Y
b100001100 ]
b100001100 a
b100001100 p
b100001100 |
b1111111111111011110100 %"
b10000000000000000000000 N
b10000000000000000000000 w
b10000000000000000000000 #"
1@
b0 ?
b0 X
b0 `
b0 ,"
10
b0 /
b0 K
b0 !"
b0 /"
b0 W
b0 e
b0 }
b1000011000100000001000 8
b1000011000100000001000 G
b1000011000100000001000 _
b1100 <
b1100 E
b1100 t
b1000 =
b1000 D
b1000 s
b10011 7
b10011 *"
b0 (
b0 2
b0 O
b0 d
b0 9"
b0 D"
b10000110001000000010000010011 ,
b10000110001000000010000010011 >
b10000110001000000010000010011 d"
b11100 S
b11100 k
b11100 n
b0 8"
b0 F"
b0 K"
1U"
b0 7"
b0 E"
b0 Z"
b100100100 P
b100100100 f
b100100100 r
b100100100 {
b11100 R
b11100 i
b11100 l
b11100 ~
b11000 )
b11000 4
b11000 H
b11000 c"
b11000 T
b11000 h
b11000 m
b11000 o
b11000 q
1!
#120
0U"
0!
#130
bzx Q"
bzx b"
bx W
bx e
bx }
bx (
bx 2
bx O
bx d
bx 9"
bx D"
b11 V
b11 b
0:"
1>"
0?"
b1001111 J
b1001111 ^
b1001111 $"
b10011 J"
b1001111 Y
b1001111 ]
b1001111 a
b1001111 p
b1001111 |
b1001111 L
b1001111 v
b1001111 ""
b1001111 <"
b1001111 @"
b1001111 G"
b10011110000000001001 8
b10011110000000001001 G
b10011110000000001001 _
b1001 ;
b1001 F
b1001 u
b1111 <
b1111 E
b1111 t
b0 =
b0 D
b0 s
b1001111 -
b1001111 A
b1001111 C
b1001111 z
b1001111 0"
b1001111 ="
b1001111 Z
b1001111 j
b1001111 &"
b1001111 ("
b100111100000000010010010011 ,
b100111100000000010010010011 >
b100111100000000010010010011 d"
b100000 S
b100000 k
b100000 n
b11111111111111111111111110110001 %"
b0 N
b0 w
b0 #"
b1101011 P
b1101011 f
b1101011 r
b1101011 {
b100000 R
b100000 i
b100000 l
b100000 ~
b11100 )
b11100 4
b11100 H
b11100 c"
b11100 T
b11100 h
b11100 m
b11100 o
b11100 q
1U"
bx 8"
bx F"
bx K"
1!
#140
0U"
0!
#150
za"
bz Q"
bz b"
b100000000000001000011 J"
b0 V
b0 b
b11 6"
b11 A"
b11 N"
13"
b10000000000000100001100 <"
b10000000000000100001100 @"
b10000000000000100001100 G"
0>"
1?"
b10000000000000100001100 L
b10000000000000100001100 v
b10000000000000100001100 ""
b1001111 B"
b10000000000000100001100 -
b10000000000000100001100 A
b10000000000000100001100 C
b10000000000000100001100 z
b10000000000000100001100 0"
b10000000000000100001100 ="
b10000000000000100001100 Z
b10000000000000100001100 j
b10000000000000100001100 &"
b10000000000000100001100 ("
b10 *
b10 6
b10 1"
b10 I"
04"
b0 J
b0 ^
b0 $"
b0 Y
b0 ]
b0 a
b0 p
b0 |
b1001111 &
b1001111 1
b1001111 I
b1001111 2"
b1001111 H"
b1001111 O"
b1001111 M
b1001111 \
b1001111 x
b10000000000000100001100 %"
b10000000000000100001100 N
b10000000000000100001100 w
b10000000000000100001100 #"
b10 5
b10 U
b10 c
b10 -"
b1 ?
b1 X
b1 `
b1 ,"
1'
1@
00
b10010100001000000 8
b10010100001000000 G
b10010100001000000 _
b0 ;
b0 F
b0 u
b1001 <
b1001 E
b1001 t
b1000 =
b1000 D
b1000 s
b10 :
b10 )"
b100011 7
b100011 *"
b100101000010000000100011 ,
b100101000010000000100011 >
b100101000010000000100011 d"
b100100 S
b100100 k
b100100 n
1U"
b100000 P
b100000 f
b100000 r
b100000 {
b100100 R
b100100 i
b100100 l
b100100 ~
b100000 )
b100000 4
b100000 H
b100000 c"
b100000 T
b100000 h
b100000 m
b100000 o
b100000 q
1!
#160
0U"
0!
#170
b0 J"
bx W
bx e
bx }
b0 <"
b0 @"
b0 G"
1>"
0?"
bx (
bx 2
bx O
bx d
bx 9"
bx D"
b0 B"
b0 -
b0 A
b0 C
b0 z
b0 0"
b0 ="
b0 Z
b0 j
b0 &"
b0 ("
b10000000000000000000000 L
b10000000000000000000000 v
b10000000000000000000000 ""
b0 *
b0 6
b0 1"
b0 I"
0:"
03"
b10000000000000000000000 Y
b10000000000000000000000 ]
b10000000000000000000000 a
b10000000000000000000000 p
b10000000000000000000000 |
b0 &
b0 1
b0 I
b0 2"
b0 H"
b0 O"
b0 M
b0 \
b0 x
b0 %"
b0 N
b0 w
b0 #"
b11 /
b11 K
b11 !"
b11 /"
10
b0 5
b0 U
b0 c
b0 -"
b11 ?
b11 X
b11 `
b11 ,"
0@
0'
b1000000000001000 8
b1000000000001000 G
b1000000000001000 _
b1000 ;
b1000 F
b1000 u
b100 <
b100 E
b100 t
b0 =
b0 D
b0 s
b0 :
b0 )"
b110111 7
b110111 *"
b10000000000010000110111 ,
b10000000000010000110111 >
b10000000000010000110111 d"
b101000 S
b101000 k
b101000 n
b10000000000000000100100 P
b10000000000000000100100 f
b10000000000000000100100 r
b10000000000000000100100 {
b101000 R
b101000 i
b101000 l
b101000 ~
b100100 )
b100100 4
b100100 H
b100100 c"
b100100 T
b100100 h
b100100 m
b100100 o
b100100 q
1U"
1!
#180
0U"
0!
#190
1:"
b100000000000001000000 J"
0>"
1?"
b10000000000000100000000 <"
b10000000000000100000000 @"
b10000000000000100000000 G"
b10000000000000100000000 -
b10000000000000100000000 A
b10000000000000100000000 C
b10000000000000100000000 z
b10000000000000100000000 0"
b10000000000000100000000 ="
b10000000000000100000000 Z
b10000000000000100000000 j
b10000000000000100000000 &"
b10000000000000100000000 ("
b100000000 J
b100000000 ^
b100000000 $"
b10000000000000100000000 L
b10000000000000100000000 v
b10000000000000100000000 ""
b100000000 Y
b100000000 ]
b100000000 a
b100000000 p
b100000000 |
b1111111111111100000000 %"
b10000000000000000000000 N
b10000000000000000000000 w
b10000000000000000000000 #"
1@
b0 ?
b0 X
b0 `
b0 ,"
10
b0 /
b0 K
b0 !"
b0 /"
b1001111 W
b1001111 e
b1001111 }
b1000000000100000001000 8
b1000000000100000001000 G
b1000000000100000001000 _
b0 <
b0 E
b0 t
b1000 =
b1000 D
b1000 s
b10011 7
b10011 *"
b1001111 (
b1001111 2
b1001111 O
b1001111 d
b1001111 9"
b1001111 D"
b10000000001000000010000010011 ,
b10000000001000000010000010011 >
b10000000001000000010000010011 d"
b101100 S
b101100 k
b101100 n
b0 8"
b0 F"
b0 K"
1U"
b1001111 7"
b1001111 E"
b1001111 Z"
b100101000 P
b100101000 f
b100101000 r
b100101000 {
b101100 R
b101100 i
b101100 l
b101100 ~
b101000 )
b101000 4
b101000 H
b101000 c"
b101000 T
b101000 h
b101000 m
b101000 o
b101000 q
1!
#200
0U"
0!
#210
bx W
bx e
bx }
bx (
bx 2
bx O
bx d
bx 9"
bx D"
b1 V
b1 b
0:"
1>"
0?"
b1 J
b1 ^
b1 $"
b0 J"
b1 Y
b1 ]
b1 a
b1 p
b1 |
b1 L
b1 v
b1 ""
b1 <"
b1 @"
b1 G"
b10000000001001 8
b10000000001001 G
b10000000001001 _
b1001 ;
b1001 F
b1001 u
b1 <
b1 E
b1 t
b0 =
b0 D
b0 s
b1 -
b1 A
b1 C
b1 z
b1 0"
b1 ="
b1 Z
b1 j
b1 &"
b1 ("
b100000000010010010011 ,
b100000000010010010011 >
b100000000010010010011 d"
b110000 S
b110000 k
b110000 n
b11111111111111111111111111111111 %"
b0 N
b0 w
b0 #"
b101101 P
b101101 f
b101101 r
b101101 {
b110000 R
b110000 i
b110000 l
b110000 ~
b101100 )
b101100 4
b101100 H
b101100 c"
b101100 T
b101100 h
b101100 m
b101100 o
b101100 q
1U"
bx 8"
bx F"
bx K"
1!
#220
0U"
0!
#230
b100000000000001000000 J"
b0 V
b0 b
b10000000000000100000000 L
b10000000000000100000000 v
b10000000000000100000000 ""
b0 6"
b0 A"
b0 N"
13"
b10000000000000100000000 <"
b10000000000000100000000 @"
b10000000000000100000000 G"
0>"
1?"
b1 B"
b10000000000000100000000 -
b10000000000000100000000 A
b10000000000000100000000 C
b10000000000000100000000 z
b10000000000000100000000 0"
b10000000000000100000000 ="
b10000000000000100000000 Z
b10000000000000100000000 j
b10000000000000100000000 &"
b10000000000000100000000 ("
b10 *
b10 6
b10 1"
b10 I"
04"
b0 J
b0 ^
b0 $"
b0 Y
b0 ]
b0 a
b0 p
b0 |
b1 &
b1 1
b1 I
b1 2"
b1 H"
b1 O"
b1 M
b1 \
b1 x
b10000000000000100000000 %"
b10000000000000100000000 N
b10000000000000100000000 w
b10000000000000100000000 #"
b10 5
b10 U
b10 c
b10 -"
b1 ?
b1 X
b1 `
b1 ,"
1'
1@
00
b0 W
b0 e
b0 }
b10010100001000000 8
b10010100001000000 G
b10010100001000000 _
b0 ;
b0 F
b0 u
b1001 <
b1001 E
b1001 t
b1000 =
b1000 D
b1000 s
b10 :
b10 )"
b100011 7
b100011 *"
b0 (
b0 2
b0 O
b0 d
b0 9"
b0 D"
b100101000010000000100011 ,
b100101000010000000100011 >
b100101000010000000100011 d"
b110100 S
b110100 k
b110100 n
b0 8"
b0 F"
b0 K"
1U"
b110000 P
b110000 f
b110000 r
b110000 {
b110100 R
b110100 i
b110100 l
b110100 ~
b110000 )
b110000 4
b110000 H
b110000 c"
b110000 T
b110000 h
b110000 m
b110000 o
b110000 q
1!
#240
0U"
0!
#250
b0 J"
b0 <"
b0 @"
b0 G"
1>"
0?"
b0 B"
b0 -
b0 A
b0 C
b0 z
b0 0"
b0 ="
b0 Z
b0 j
b0 &"
b0 ("
b10000000000000000000000 L
b10000000000000000000000 v
b10000000000000000000000 ""
b0 *
b0 6
b0 1"
b0 I"
0:"
03"
b10000000000000000000000 Y
b10000000000000000000000 ]
b10000000000000000000000 a
b10000000000000000000000 p
b10000000000000000000000 |
b0 &
b0 1
b0 I
b0 2"
b0 H"
b0 O"
b0 M
b0 \
b0 x
b0 %"
b0 N
b0 w
b0 #"
b11 /
b11 K
b11 !"
b11 /"
10
b0 5
b0 U
b0 c
b0 -"
b11 ?
b11 X
b11 `
b11 ,"
0@
0'
b1000000000001010 8
b1000000000001010 G
b1000000000001010 _
b1010 ;
b1010 F
b1010 u
b100 <
b100 E
b100 t
b0 =
b0 D
b0 s
b0 :
b0 )"
b110111 7
b110111 *"
bx W
bx e
bx }
b10000000000010100110111 ,
b10000000000010100110111 >
b10000000000010100110111 d"
b111000 S
b111000 k
b111000 n
bx (
bx 2
bx O
bx d
bx 9"
bx D"
b10000000000000000110100 P
b10000000000000000110100 f
b10000000000000000110100 r
b10000000000000000110100 {
b111000 R
b111000 i
b111000 l
b111000 ~
b110100 )
b110100 4
b110100 H
b110100 c"
b110100 T
b110100 h
b110100 m
b110100 o
b110100 q
1U"
bx 8"
bx F"
bx K"
1!
#260
0U"
0!
#270
1:"
b100000000000001000001 J"
0>"
1?"
b10000000000000100000100 <"
b10000000000000100000100 @"
b10000000000000100000100 G"
b10000000000000100000100 -
b10000000000000100000100 A
b10000000000000100000100 C
b10000000000000100000100 z
b10000000000000100000100 0"
b10000000000000100000100 ="
b10000000000000100000100 Z
b10000000000000100000100 j
b10000000000000100000100 &"
b10000000000000100000100 ("
b100000100 J
b100000100 ^
b100000100 $"
b10000000000000100000100 L
b10000000000000100000100 v
b10000000000000100000100 ""
b100000100 Y
b100000100 ]
b100000100 a
b100000100 p
b100000100 |
b1111111111111011111100 %"
b10000000000000000000000 N
b10000000000000000000000 w
b10000000000000000000000 #"
1@
b0 ?
b0 X
b0 `
b0 ,"
10
b0 /
b0 K
b0 !"
b0 /"
b1 W
b1 e
b1 }
b1000001000101000001010 8
b1000001000101000001010 G
b1000001000101000001010 _
b1010 =
b1010 D
b1010 s
b10011 7
b10011 *"
b1 (
b1 2
b1 O
b1 d
b1 9"
b1 D"
b10000010001010000010100010011 ,
b10000010001010000010100010011 >
b10000010001010000010100010011 d"
b111100 S
b111100 k
b111100 n
b0 8"
b0 F"
b0 K"
1U"
1W"
b1 7"
b1 E"
b1 Z"
b100111100 P
b100111100 f
b100111100 r
b100111100 {
b111100 R
b111100 i
b111100 l
b111100 ~
b111000 )
b111000 4
b111000 H
b111000 c"
b111000 T
b111000 h
b111000 m
b111000 o
b111000 q
1!
#280
0U"
0!
